# 3ds Max Wavefront OBJ Exporter v0.97b - (c)2007 guruware
# File Created: 11.10.2014 19:06:41

mtllib Ixn_spaceship_it3_interior.mtl

#
# object Default
#

v  2.6250 10.0000 -1.0000
v  -12.3750 10.0000 -1.0000
v  -12.3750 10.0000 -7.5000
v  2.6250 10.0000 -7.5000
v  -12.3750 3.0000 -7.5000
v  2.6250 3.0000 -7.5000
v  2.6250 3.0000 -1.0000
v  -12.3750 2.0000 -7.5000
v  2.6250 2.0000 -7.5000
v  -12.3750 1.0000 -7.5000
v  2.6250 1.0000 -7.5000
v  -12.3750 0.0000 -7.5000
v  2.6250 0.0000 -7.5000
v  2.6250 2.0000 -1.0000
v  2.6250 1.0000 -1.0000
v  2.6250 0.0000 -1.0000
v  -12.3750 0.0000 -1.0000
v  -12.3750 3.0000 -1.0000
v  -12.3750 2.0000 -1.0000
v  -12.3750 1.0000 -1.0000
v  -14.2000 2.0000 -1.0000
v  -14.2000 3.0000 -1.0000
v  -14.2000 1.0000 -1.0000
v  -14.2000 0.0000 -1.0000
v  -14.5000 1.0000 -1.0000
v  -14.5000 0.0000 -1.0000
v  -14.5000 2.0000 -1.0000
v  -14.5000 3.0000 -1.0000
v  -14.5000 1.0000 -4.5000
v  -14.5000 0.0000 -4.5000
v  -14.5000 2.0000 -4.5000
v  -14.5000 3.0000 -4.5000
v  -16.5954 2.0000 -4.5000
v  -16.5953 2.0388 -5.6645
v  -16.5954 1.0000 -5.1000
v  -16.5954 1.0000 -4.5000
v  -18.9714 2.0388 -5.6645
v  -18.9715 1.0000 -5.1000
v  -18.9715 0.0000 -5.1000
v  -16.5954 0.0000 -5.1000
v  -16.5954 0.0000 -4.5000
v  -16.6000 0.0000 -1.0000
v  -18.9688 0.0000 -4.5000
v  -18.9734 0.0000 -1.0000
v  -19.7501 2.0384 -4.8109
v  -19.4125 0.9997 -4.6162
v  -19.4125 -0.0003 -4.6162
v  -22.1279 2.0383 -0.2646
v  -21.7903 1.0007 -0.0681
v  -21.7903 -0.0005 -0.0699
v  -22.1279 2.0383 -0.0000
v  -21.7903 1.0007 -0.0000
v  2.6250 10.0000 -0.0000
v  -12.3750 10.0000 -0.0000
v  2.6250 3.0000 -0.0000
v  2.6250 2.0000 -0.0000
v  2.6250 1.0000 -0.0000
v  2.6250 0.0000 -0.0000
v  -12.3750 0.0000 -0.0000
v  -12.3750 3.0000 -0.0000
v  -14.2000 3.0000 -0.0000
v  -14.2000 0.0000 -0.0000
v  -14.5000 3.0000 -0.0000
v  -14.5000 0.0000 -0.0000
v  -16.6000 0.0000 -0.0000
v  -12.3750 10.0000 7.5000
v  -12.3750 10.0000 1.0000
v  2.6250 10.0000 1.0000
v  2.6250 10.0000 7.5000
v  2.6250 3.0000 7.5000
v  -12.3750 3.0000 7.5000
v  2.6250 3.0000 1.0000
v  2.6250 2.0000 7.5000
v  -12.3750 2.0000 7.5000
v  2.6250 1.0000 7.5000
v  -12.3750 1.0000 7.5000
v  2.6250 0.0000 7.5000
v  -12.3750 0.0000 7.5000
v  2.6250 2.0000 1.0000
v  2.6250 1.0000 1.0000
v  2.6250 0.0000 1.0000
v  -12.3750 0.0000 1.0000
v  -12.3750 3.0000 1.0000
v  -12.3750 2.0000 1.0000
v  -12.3750 1.0000 1.0000
v  -14.2000 2.0000 1.0000
v  -14.2000 3.0000 1.0000
v  -14.2000 1.0000 1.0000
v  -14.2000 0.0000 1.0000
v  -14.5000 0.0000 1.0000
v  -14.5000 1.0000 1.0000
v  -14.5000 2.0000 1.0000
v  -14.5000 3.0000 1.0000
v  -14.5000 0.0000 4.5000
v  -14.5000 1.0000 4.5000
v  -14.5000 2.0000 4.5000
v  -14.5000 3.0000 4.5000
v  -16.5954 2.0000 4.5000
v  -16.5954 1.0000 4.5000
v  -16.5954 1.0000 5.1000
v  -16.5953 2.0388 5.6645
v  -18.9715 1.0000 5.1000
v  -18.9714 2.0388 5.6645
v  -16.5954 0.0000 5.1000
v  -18.9715 0.0000 5.1000
v  -16.5954 0.0000 4.5000
v  -16.6000 0.0000 1.0000
v  -18.9688 0.0000 4.5000
v  -18.9734 0.0000 1.0000
v  -19.4125 0.9997 4.6162
v  -19.7501 2.0384 4.8109
v  -19.4125 -0.0003 4.6162
v  -21.7903 1.0007 0.0681
v  -22.1279 2.0383 0.2646
v  -21.7903 0.0007 0.0681
v  -18.9734 0.0000 -0.0000
v  -21.7903 0.0007 -0.0000
v  -16.6000 3.0000 1.0000
v  -16.6000 3.0000 -0.0000
v  -16.6000 3.0000 -1.0000
v  -16.6000 3.0000 4.5000
v  -16.5953 2.7311 5.6666
v  -16.6000 3.0000 -4.5000
v  -16.5953 2.7311 -5.6666
v  -18.9735 3.0000 0.1467
v  -18.9735 3.0000 -0.0000
v  -18.9735 3.0000 -0.1467
v  -18.9734 2.7311 5.6666
v  -18.9735 3.0000 4.5000
v  -18.9735 3.0000 -4.5000
v  -18.9734 2.7311 -5.6666
v  -19.7499 2.7308 4.8133
v  -19.7500 2.9997 3.6467
v  -19.7500 2.9997 0.1467
v  -19.7500 2.9997 -0.1467
v  -19.7500 2.9997 -3.6467
v  -19.7499 2.7308 -4.8133
v  -19.7500 2.9997 -0.0000
v  -22.1279 2.7306 0.2647
v  -22.1279 2.7306 -0.0000
v  -22.1279 2.7306 -0.2647
# 141 vertices

vn 0.0000 -1.0000 -0.0000
vn 0.0000 0.0000 1.0000
vn -1.0000 0.0000 -0.0000
vn 0.0000 1.0000 -0.0000
vn 1.0000 0.0000 -0.0000
vn -1.0000 -0.0023 -0.0015
vn 0.0000 0.4775 0.8787
vn 0.0000 0.2463 0.9692
vn -0.0004 1.0000 0.0000
vn -0.0002 1.0000 -0.0000
vn 0.7673 0.3500 0.5374
vn 0.8062 0.1779 0.5643
vn 0.7275 0.1746 0.6635
vn 0.6936 0.3439 0.6329
vn 0.8194 0.0000 0.5732
vn 0.7391 0.0000 0.6736
vn 0.9140 0.3390 0.2228
vn 0.9568 0.1723 0.2341
vn 0.9711 0.0000 0.2385
vn 0.9509 0.3094 -0.0000
vn 0.9877 0.1567 0.0000
vn 0.0000 0.0000 -1.0000
vn -1.0000 -0.0023 0.0015
vn -1.0000 0.0000 0.0000
vn 0.0000 0.2463 -0.9692
vn 0.0000 0.4775 -0.8787
vn -0.0001 1.0000 -0.0000
vn -0.0004 1.0000 -0.0000
vn 0.0001 1.0000 -0.0000
vn 0.7275 0.1746 -0.6635
vn 0.8062 0.1779 -0.5643
vn 0.7673 0.3500 -0.5374
vn 0.6936 0.3439 -0.6329
vn 0.7391 0.0000 -0.6736
vn 0.8194 0.0000 -0.5732
vn 0.9568 0.1723 -0.2341
vn 0.9140 0.3390 -0.2228
vn 0.9711 0.0000 -0.2385
vn 0.0002 1.0000 -0.0000
vn -0.0003 1.0000 -0.0000
vn -0.0008 1.0000 0.0000
vn -0.0005 1.0000 -0.0000
vn 1.0000 0.0000 0.0000
vn -1.0000 -0.0046 0.0030
vn 0.0000 -0.9972 -0.0753
vn -1.0000 -0.0046 -0.0030
vn 0.0000 -0.9972 0.0753
vn 0.0002 -1.0000 -0.0000
vn 0.0000 -0.9744 -0.2246
vn 0.1209 -0.9673 -0.2230
vn 0.0608 -0.9918 -0.1120
vn 0.0608 -0.9918 0.1120
vn 0.1209 -0.9673 0.2230
vn 0.0000 -0.9744 0.2246
vn 0.3443 -0.9149 -0.2109
vn 0.2130 -0.9712 -0.1070
vn 0.0752 -0.9972 0.0000
vn 0.0752 -0.9972 -0.0000
vn 0.2130 -0.9712 0.1070
vn 0.3443 -0.9149 0.2109
vn 0.2097 -0.9753 -0.0698
vn 0.1124 -0.9937 0.0000
vn 0.2097 -0.9753 0.0698
# 63 vertex normals

vt 0.5000 0.4778 0.0000
vt 0.7500 0.4778 0.0000
vt 0.7500 0.3333 0.0000
vt 0.5000 0.3333 0.0000
vt 0.5000 0.0000 0.0000
vt 0.3250 0.0000 0.0000
vt 0.3250 0.3333 0.0000
vt 0.3250 0.4778 0.0000
vt 0.3000 0.0000 0.0000
vt 0.3000 0.3333 0.0000
vt 0.2750 0.0000 0.0000
vt 0.2750 0.3333 0.0000
vt 0.2500 0.0000 0.0000
vt 0.2500 0.3333 0.0000
vt 0.3000 0.4778 0.0000
vt 0.2750 0.4778 0.0000
vt 0.2500 0.4778 0.0000
vt 0.0000 0.4778 0.0000
vt 0.0000 0.3333 0.0000
vt 0.9250 0.4778 0.0000
vt 0.9250 0.3333 0.0000
vt 0.9500 0.4778 0.0000
vt 0.9500 0.3333 0.0000
vt 0.9750 0.4778 0.0000
vt 0.9750 0.3333 0.0000
vt 1.0000 0.4778 0.0000
vt 1.0000 0.3333 0.0000
vt 1.0000 0.0000 0.0000
vt 1.0000 1.0000 0.0000
vt 0.0000 1.0000 0.0000
vt 0.0000 0.0000 0.0000
vt 0.5000 0.5000 0.0000
vt 0.7500 0.5000 0.0000
vt 0.3250 0.5000 0.0000
vt 0.3000 0.5000 0.0000
vt 0.2750 0.5000 0.0000
vt 0.2500 0.5000 0.0000
vt 0.0000 0.5000 0.0000
vt 0.9250 0.5000 0.0000
vt 1.0000 0.5000 0.0000
# 40 texture coords

g Default
usemtl Default
s 1
f 1/1/1 2/2/1 3/3/1 
f 3/3/1 4/4/1 1/1/1 
f 3/5/2 5/6/2 6/7/2 
f 6/7/2 4/4/2 3/5/2 
f 4/4/3 6/7/3 7/8/3 
f 7/8/3 1/1/3 4/4/3 
f 8/9/2 9/10/2 6/7/2 
f 6/7/2 5/6/2 8/9/2 
f 10/11/2 11/12/2 9/10/2 
f 9/10/2 8/9/2 10/11/2 
f 12/13/2 13/14/2 11/12/2 
f 11/12/2 10/11/2 12/13/2 
f 9/10/3 14/15/3 7/8/3 
f 7/8/3 6/7/3 9/10/3 
f 11/12/3 15/16/3 14/15/3 
f 14/15/3 9/10/3 11/12/3 
f 13/14/3 16/17/3 15/16/3 
f 15/16/3 11/12/3 13/14/3 
f 17/18/4 16/17/4 13/14/4 
f 13/14/4 12/19/4 17/18/4 
f 2/2/5 18/20/5 5/21/5 
f 5/21/5 3/3/5 2/2/5 
f 19/22/5 8/23/5 5/21/5 
f 5/21/5 18/20/5 19/22/5 
f 20/24/5 10/25/5 8/23/5 
f 8/23/5 19/22/5 20/24/5 
f 17/26/5 12/27/5 10/25/5 
f 10/25/5 20/24/5 17/26/5 
f 21/22/2 19/22/2 18/20/2 
f 18/20/2 22/20/2 21/22/2 
f 23/24/2 20/24/2 19/22/2 
f 19/22/2 21/22/2 23/24/2 
f 24/26/2 17/26/2 20/24/2 
f 20/24/2 23/24/2 24/26/2 
f 25/28/2 26/29/2 24/30/2 
f 24/30/2 23/31/2 25/28/2 
f 27/28/2 25/29/2 23/30/2 
f 23/30/2 21/31/2 27/28/2 
f 28/28/2 27/29/2 21/30/2 
f 21/30/2 22/31/2 28/28/2 
f 29/28/3 30/29/3 26/30/3 
f 26/30/3 25/31/3 29/28/3 
f 31/28/3 29/29/3 25/30/3 
f 25/30/3 27/31/3 31/28/3 
f 32/28/3 31/29/3 27/30/3 
f 27/30/3 28/31/3 32/28/3 
f 33/31/6 34/28/6 35/29/3 
f 35/29/3 36/30/3 33/31/6 
f 37/28/7 38/29/8 35/30/8 
f 35/30/8 34/31/7 37/28/7 
f 38/28/8 39/29/2 40/30/2 
f 40/30/2 35/31/8 38/28/8 
f 36/28/2 41/29/2 30/30/2 
f 30/30/2 29/31/2 36/28/2 
f 35/28/3 40/29/3 41/30/3 
f 41/30/3 36/31/3 35/28/3 
f 41/29/4 42/29/4 26/30/4 
f 26/30/4 30/31/4 41/29/4 
f 43/28/9 41/29/4 40/30/4 
f 40/30/4 39/31/9 43/28/9 
f 43/28/9 44/29/10 42/30/4 
f 42/30/4 41/31/4 43/28/9 
f 45/28/11 46/29/12 38/30/13 
f 38/30/13 37/31/14 45/28/11 
f 46/28/12 47/29/15 39/30/16 
f 39/30/16 38/31/13 46/28/12 
f 48/28/17 49/29/18 46/30/12 
f 46/30/12 45/31/11 48/28/17 
f 49/28/18 50/29/19 47/30/15 
f 47/30/15 46/31/12 49/28/18 
f 51/28/20 52/29/21 49/30/18 
f 49/30/18 48/31/17 51/28/20 
f 53/32/1 54/33/1 2/2/1 
f 2/2/1 1/1/1 53/32/1 
f 55/34/3 53/32/3 1/1/3 
f 1/1/3 7/8/3 55/34/3 
f 56/35/3 55/34/3 7/8/3 
f 7/8/3 14/15/3 56/35/3 
f 57/36/3 56/35/3 14/15/3 
f 14/15/3 15/16/3 57/36/3 
f 58/37/3 57/36/3 15/16/3 
f 15/16/3 16/17/3 58/37/3 
f 59/38/4 58/37/4 16/17/4 
f 16/17/4 17/18/4 59/38/4 
f 54/33/5 60/39/5 18/20/5 
f 18/20/5 2/2/5 54/33/5 
f 60/39/1 61/39/1 22/20/1 
f 22/20/1 18/20/1 60/39/1 
f 62/40/4 59/38/4 17/18/4 
f 17/18/4 24/26/4 62/40/4 
f 61/38/1 63/40/1 28/29/1 
f 28/29/1 22/30/1 61/38/1 
f 64/40/4 62/38/4 24/31/4 
f 24/31/4 26/28/4 64/40/4 
f 65/40/4 64/38/4 26/31/4 
f 26/31/4 42/28/4 65/40/4 
f 66/3/1 67/2/1 68/1/1 
f 68/1/1 69/4/1 66/3/1 
f 70/7/22 71/6/22 66/5/22 
f 66/5/22 69/4/22 70/7/22 
f 72/8/3 70/7/3 69/4/3 
f 69/4/3 68/1/3 72/8/3 
f 70/7/22 73/10/22 74/9/22 
f 74/9/22 71/6/22 70/7/22 
f 73/10/22 75/12/22 76/11/22 
f 76/11/22 74/9/22 73/10/22 
f 75/12/22 77/14/22 78/13/22 
f 78/13/22 76/11/22 75/12/22 
f 72/8/3 79/15/3 73/10/3 
f 73/10/3 70/7/3 72/8/3 
f 79/15/3 80/16/3 75/12/3 
f 75/12/3 73/10/3 79/15/3 
f 80/16/3 81/17/3 77/14/3 
f 77/14/3 75/12/3 80/16/3 
f 77/14/4 81/17/4 82/18/4 
f 82/18/4 78/19/4 77/14/4 
f 71/21/5 83/20/5 67/2/5 
f 67/2/5 66/3/5 71/21/5 
f 71/21/5 74/23/5 84/22/5 
f 84/22/5 83/20/5 71/21/5 
f 74/23/5 76/25/5 85/24/5 
f 85/24/5 84/22/5 74/23/5 
f 76/25/5 78/27/5 82/26/5 
f 82/26/5 85/24/5 76/25/5 
f 83/20/22 84/22/22 86/22/22 
f 86/22/22 87/20/22 83/20/22 
f 84/22/22 85/24/22 88/24/22 
f 88/24/22 86/22/22 84/22/22 
f 85/24/22 82/26/22 89/26/22 
f 89/26/22 88/24/22 85/24/22 
f 89/30/22 90/29/22 91/28/22 
f 91/28/22 88/31/22 89/30/22 
f 88/30/22 91/29/22 92/28/22 
f 92/28/22 86/31/22 88/30/22 
f 86/30/22 92/29/22 93/28/22 
f 93/28/22 87/31/22 86/30/22 
f 90/30/3 94/29/3 95/28/3 
f 95/28/3 91/31/3 90/30/3 
f 91/30/3 95/29/3 96/28/3 
f 96/28/3 92/31/3 91/30/3 
f 92/30/3 96/29/3 97/28/3 
f 97/28/3 93/31/3 92/30/3 
f 98/31/23 99/30/24 100/29/24 
f 100/29/24 101/28/23 98/31/23 
f 100/30/25 102/29/25 103/28/26 
f 103/28/26 101/31/26 100/30/25 
f 104/30/22 105/29/22 102/28/25 
f 102/28/25 100/31/25 104/30/22 
f 94/30/22 106/29/22 99/28/22 
f 99/28/22 95/31/22 94/30/22 
f 106/30/3 104/29/3 100/28/24 
f 100/28/24 99/31/24 106/30/3 
f 90/30/4 107/29/4 106/29/4 
f 106/29/4 94/31/4 90/30/4 
f 104/30/4 106/29/4 108/28/27 
f 108/28/27 105/31/28 104/30/4 
f 107/30/4 109/29/29 108/28/27 
f 108/28/27 106/31/4 107/30/4 
f 102/30/30 110/29/31 111/28/32 
f 111/28/32 103/31/33 102/30/30 
f 105/30/34 112/29/35 110/28/31 
f 110/28/31 102/31/30 105/30/34 
f 110/30/31 113/29/36 114/28/37 
f 114/28/37 111/31/32 110/30/31 
f 112/30/35 115/29/38 113/28/36 
f 113/28/36 110/31/31 112/30/35 
f 113/30/36 52/29/21 51/28/20 
f 51/28/20 114/31/37 113/30/36 
f 67/2/1 54/33/1 53/32/1 
f 53/32/1 68/1/1 67/2/1 
f 68/1/3 53/32/3 55/34/3 
f 55/34/3 72/8/3 68/1/3 
f 72/8/3 55/34/3 56/35/3 
f 56/35/3 79/15/3 72/8/3 
f 79/15/3 56/35/3 57/36/3 
f 57/36/3 80/16/3 79/15/3 
f 80/16/3 57/36/3 58/37/3 
f 58/37/3 81/17/3 80/16/3 
f 81/17/4 58/37/4 59/38/4 
f 59/38/4 82/18/4 81/17/4 
f 83/20/5 60/39/5 54/33/5 
f 54/33/5 67/2/5 83/20/5 
f 87/20/1 61/39/1 60/39/1 
f 60/39/1 83/20/1 87/20/1 
f 82/18/4 59/38/4 62/40/4 
f 62/40/4 89/26/4 82/18/4 
f 93/29/1 63/40/1 61/38/1 
f 61/38/1 87/30/1 93/29/1 
f 89/31/4 62/38/4 64/40/4 
f 64/40/4 90/28/4 89/31/4 
f 90/31/4 64/38/4 65/40/4 
f 65/40/4 107/28/4 90/31/4 
f 107/31/4 65/38/4 116/40/4 
f 116/40/4 109/28/29 107/31/4 
f 109/31/29 115/29/39 112/29/40 
f 112/29/40 108/30/27 109/31/29 
f 108/31/27 112/29/40 105/30/28 
f 47/29/41 50/29/42 44/30/10 
f 44/30/10 43/31/9 47/29/41 
f 39/31/9 47/29/41 43/30/9 
f 49/31/18 52/28/21 117/29/43 
f 117/29/43 50/30/19 49/31/18 
f 42/31/4 44/28/10 116/40/4 
f 116/40/4 65/38/4 42/31/4 
f 117/29/43 52/28/21 113/31/36 
f 113/31/36 115/30/38 117/29/43 
f 116/40/4 117/29/4 115/30/39 
f 115/30/39 109/31/29 116/40/4 
f 50/29/42 117/29/4 116/40/4 
f 116/40/4 44/28/10 50/29/42 
f 118/28/1 119/29/1 63/30/1 
f 63/30/1 93/31/1 118/28/1 
f 119/28/1 120/29/1 28/30/1 
f 28/30/1 63/31/1 119/28/1 
f 96/30/22 98/29/22 121/28/22 
f 121/28/22 97/31/22 96/30/22 
f 98/30/23 101/29/23 122/28/44 
f 122/28/44 121/31/44 98/30/23 
f 121/28/45 118/29/1 93/30/1 
f 93/30/1 97/31/1 121/28/45 
f 123/29/2 33/29/2 31/30/2 
f 31/30/2 32/31/2 123/29/2 
f 124/28/46 34/29/6 33/30/6 
f 33/30/6 123/31/46 124/28/46 
f 120/28/1 123/29/47 32/30/1 
f 32/30/1 28/31/1 120/28/1 
f 125/28/48 126/29/48 119/30/1 
f 119/30/1 118/31/1 125/28/48 
f 119/31/1 126/28/48 127/29/48 
f 127/29/48 120/30/1 119/31/1 
f 122/30/49 128/29/50 129/28/51 
f 129/28/51 121/31/45 122/30/49 
f 129/28/51 125/29/48 118/30/1 
f 118/30/1 121/31/45 129/28/51 
f 130/29/52 131/29/53 124/30/54 
f 124/30/54 123/31/47 130/29/52 
f 120/31/1 127/28/48 130/29/52 
f 130/29/52 123/30/47 120/31/1 
f 132/28/55 133/29/56 129/30/51 
f 129/30/51 128/31/50 132/28/55 
f 133/28/56 134/29/57 125/30/48 
f 125/30/48 129/31/51 133/28/56 
f 127/31/48 135/28/58 136/29/59 
f 136/29/59 130/30/52 127/31/48 
f 130/31/52 136/28/59 137/29/60 
f 137/29/60 131/30/53 130/31/52 
f 134/28/57 138/29/57 126/30/48 
f 126/30/48 125/31/48 134/28/57 
f 138/28/57 135/29/58 127/30/48 
f 127/30/48 126/31/48 138/28/57 
f 133/31/56 139/29/61 134/30/57 
f 133/31/56 139/29/61 134/30/57 
f 132/31/55 139/29/61 133/30/56 
f 132/31/55 139/29/61 133/30/56 
f 140/28/62 138/29/57 134/30/57 
f 134/30/57 139/31/61 140/28/62 
f 140/28/62 138/29/57 134/30/57 
f 134/30/57 139/31/61 140/28/62 
f 135/31/58 141/28/63 136/30/59 
f 135/31/58 141/28/63 136/30/59 
f 136/31/59 141/28/63 137/30/60 
f 136/31/59 141/28/63 137/30/60 
f 138/29/57 140/28/62 141/30/63 
f 141/30/63 135/31/58 138/29/57 
f 138/29/57 140/28/62 141/30/63 
f 141/30/63 135/31/58 138/29/57 
f 96/28/22 95/28/22 99/28/22 
f 99/28/22 98/28/22 96/28/22 
f 36/28/2 29/28/2 31/28/2 
f 31/28/2 33/28/2 36/28/2 
# 0 polygons - 270 triangles

